{
    "backdrop_path" : "/45rk1PQjiTvEPzi0yBfYl0bdzz3.jpg",
    "first_air_date" : "2016-10-02",
    "genre_ids" :     [
                       37,
                       878
                       ],
    "id" : 63247,
    "name" : "Westworld",
    "origin_country" :     [
                            "US"
                            ],
    "original_language" : "en",
    "original_name" : "Westworld",
    "overview" : "A dark odyssey about the dawn of artificial consciousness and the future of sin. The story revolves around a futuristic theme park staffed by robots that help guests live out their fantasies. The park breaks down, however, and two guests taking a Wild West adventure find themselves stalked by a gun-slinging android.",
    "popularity" : "40.796438",
    "poster_path" : "/luGF2ODxunHvDXWPRW9PjywIvuD.jpg",
    "vote_average" : "7.2",
    "vote_count" : 66
}
